EESchema Schematic File Version 4
EELAYER 30 0
EELAYER END
$Descr A4 11693 8268
encoding utf-8
Sheet 1 1
Title ""
Date ""
Rev ""
Comp ""
Comment1 ""
Comment2 ""
Comment3 ""
Comment4 ""
$EndDescr
$Comp
L Device:R R13
U 1 1 5E9AF225
P 8920 2090
F 0 "R13" V 8713 2090 50  0000 C CNN
F 1 "R" V 8804 2090 50  0000 C CNN
F 2 "Resistor_THT:R_Axial_DIN0207_L6.3mm_D2.5mm_P2.54mm_Vertical" V 8850 2090 50  0001 C CNN
F 3 "~" H 8920 2090 50  0001 C CNN
	1    8920 2090
	0    1    1    0   
$EndComp
$Comp
L Device:LED D1
U 1 1 5E9AF908
P 1880 4270
F 0 "D1" V 1919 4153 50  0000 R CNN
F 1 "LED" V 1828 4153 50  0000 R CNN
F 2 "LED_THT:LED_D3.0mm" H 1880 4270 50  0001 C CNN
F 3 "~" H 1880 4270 50  0001 C CNN
	1    1880 4270
	0    -1   -1   0   
$EndComp
$Comp
L Device:R_POT_US RV1
U 1 1 5E9B6351
P 1440 2830
F 0 "RV1" H 1372 2784 50  0000 R CNN
F 1 "0-10k" H 1372 2875 50  0000 R CNN
F 2 "Potentiometer_THT:Potentiometer_Bourns_3006P_Horizontal" H 1440 2830 50  0001 C CNN
F 3 "~" H 1440 2830 50  0001 C CNN
	1    1440 2830
	0    -1   -1   0   
$EndComp
Wire Wire Line
	1440 2330 1440 2680
Wire Wire Line
	2040 2230 2040 2440
Wire Wire Line
	2040 2830 1590 2830
$Comp
L power:GND #PWR0101
U 1 1 5E9BA8DC
P 3490 4640
F 0 "#PWR0101" H 3490 4390 50  0001 C CNN
F 1 "GND" H 3495 4467 50  0000 C CNN
F 2 "" H 3490 4640 50  0001 C CNN
F 3 "" H 3490 4640 50  0001 C CNN
	1    3490 4640
	1    0    0    -1  
$EndComp
Text GLabel 1250 1460 0    50   Input ~ 0
piezo_lo_in
Text GLabel 1250 1140 0    50   Input ~ 0
piezo_hi_in
Text GLabel 2110 2440 2    50   Output ~ 0
common_raw
Connection ~ 2040 2440
Wire Wire Line
	2040 2440 2040 2830
Text GLabel 3600 1120 0    50   Input ~ 0
common_raw
$Comp
L Device:C C3
U 1 1 5E9C697A
P 3750 1420
F 0 "C3" H 3865 1466 50  0000 L CNN
F 1 "47nF" H 3865 1375 50  0000 L CNN
F 2 "Capacitor_THT:C_Disc_D3.0mm_W2.0mm_P2.50mm" H 3788 1270 50  0001 C CNN
F 3 "~" H 3750 1420 50  0001 C CNN
	1    3750 1420
	1    0    0    -1  
$EndComp
$Comp
L Device:R R8
U 1 1 5E9C72DE
P 4370 1250
F 0 "R8" V 4163 1250 50  0000 C CNN
F 1 "430R" V 4254 1250 50  0000 C CNN
F 2 "Resistor_THT:R_Axial_DIN0207_L6.3mm_D2.5mm_P7.62mm_Horizontal" V 4300 1250 50  0001 C CNN
F 3 "~" H 4370 1250 50  0001 C CNN
	1    4370 1250
	0    1    1    0   
$EndComp
$Comp
L Device:C C6
U 1 1 5E9C77AD
P 4520 1400
F 0 "C6" H 4635 1446 50  0000 L CNN
F 1 "47nF" H 4635 1355 50  0000 L CNN
F 2 "Capacitor_THT:C_Disc_D3.0mm_W2.0mm_P2.50mm" H 4558 1250 50  0001 C CNN
F 3 "~" H 4520 1400 50  0001 C CNN
	1    4520 1400
	1    0    0    -1  
$EndComp
$Comp
L Device:R_POT_US RV3
U 1 1 5E9C9175
P 3600 1270
F 0 "RV3" H 3532 1316 50  0000 R CNN
F 1 "0-2k" H 3532 1225 50  0000 R CNN
F 2 "Potentiometer_THT:Potentiometer_Bourns_3006P_Horizontal" H 3600 1270 50  0001 C CNN
F 3 "~" H 3600 1270 50  0001 C CNN
	1    3600 1270
	1    0    0    1   
$EndComp
NoConn ~ 3600 1420
$Comp
L power:GND #PWR0102
U 1 1 5E9CC440
P 7100 1580
F 0 "#PWR0102" H 7100 1330 50  0001 C CNN
F 1 "GND" H 7105 1407 50  0000 C CNN
F 2 "" H 7100 1580 50  0001 C CNN
F 3 "" H 7100 1580 50  0001 C CNN
	1    7100 1580
	1    0    0    -1  
$EndComp
$Comp
L Device:C C4
U 1 1 5E9D303E
P 3950 1420
F 0 "C4" H 4065 1466 50  0000 L CNN
F 1 "47nF" H 4065 1375 50  0000 L CNN
F 2 "Capacitor_THT:C_Disc_D3.0mm_W2.0mm_P2.50mm" H 3988 1270 50  0001 C CNN
F 3 "~" H 3950 1420 50  0001 C CNN
	1    3950 1420
	1    0    0    -1  
$EndComp
Connection ~ 4520 1250
Wire Wire Line
	3950 1570 3750 1570
Wire Wire Line
	3950 1270 3750 1270
Connection ~ 3750 1270
Wire Wire Line
	3950 1270 4220 1270
Wire Wire Line
	4220 1270 4220 1250
Connection ~ 3950 1270
$Comp
L Device:C C7
U 1 1 5E9D70E1
P 5360 1240
F 0 "C7" V 5108 1240 50  0000 C CNN
F 1 "47nF" V 5199 1240 50  0000 C CNN
F 2 "Capacitor_THT:C_Disc_D3.0mm_W2.0mm_P2.50mm" H 5398 1090 50  0001 C CNN
F 3 "~" H 5360 1240 50  0001 C CNN
	1    5360 1240
	0    1    1    0   
$EndComp
$Comp
L Device:R_POT_US RV4
U 1 1 5E9D82F3
P 5810 1390
F 0 "RV4" H 5743 1436 50  0000 R CNN
F 1 "0-20k" H 5743 1345 50  0000 R CNN
F 2 "Potentiometer_THT:Potentiometer_Bourns_3006P_Horizontal" H 5810 1390 50  0001 C CNN
F 3 "~" H 5810 1390 50  0001 C CNN
	1    5810 1390
	0    1    -1   0   
$EndComp
$Comp
L Device:C C9
U 1 1 5E9E4013
P 6160 1240
F 0 "C9" V 5908 1240 50  0000 C CNN
F 1 "47nF" V 5999 1240 50  0000 C CNN
F 2 "Capacitor_THT:C_Disc_D3.0mm_W2.0mm_P2.50mm" H 6198 1090 50  0001 C CNN
F 3 "~" H 6160 1240 50  0001 C CNN
	1    6160 1240
	0    1    1    0   
$EndComp
$Comp
L Device:R R11
U 1 1 5E9E4449
P 6310 1390
F 0 "R11" H 6240 1344 50  0000 R CNN
F 1 "10k" H 6240 1435 50  0000 R CNN
F 2 "Resistor_THT:R_Axial_DIN0207_L6.3mm_D2.5mm_P2.54mm_Vertical" V 6240 1390 50  0001 C CNN
F 3 "~" H 6310 1390 50  0001 C CNN
	1    6310 1390
	-1   0    0    1   
$EndComp
Wire Notes Line
	750  710  2670 710 
Text Notes 770  800  0    50   ~ 0
First stage amplification & mixing
Text GLabel 6460 1240 2    50   Output ~ 0
common_filtered
Wire Wire Line
	6310 1240 6460 1240
Connection ~ 6310 1240
Wire Notes Line
	2970 770  2970 1820
Wire Notes Line
	2970 1820 7240 1820
Wire Notes Line
	7240 1820 7240 760 
Wire Notes Line
	7240 760  2970 760 
Text Notes 3000 870  0    50   ~ 0
Second stage, filtration (Hi-pass 200Hz, Lo-pass 8kHz, 2nd degree)
$Comp
L Device:D_Zener D3
U 1 1 5EA032B5
P 2970 4270
F 0 "D3" V 2924 4349 50  0000 L CNN
F 1 "D_Zener" V 3015 4349 50  0000 L CNN
F 2 "Diode_THT:D_DO-15_P10.16mm_Horizontal" H 2970 4270 50  0001 C CNN
F 3 "~" H 2970 4270 50  0001 C CNN
	1    2970 4270
	0    1    1    0   
$EndComp
$Comp
L Device:C C1
U 1 1 5EA0434D
P 2310 4270
F 0 "C1" H 2425 4316 50  0000 L CNN
F 1 "47u" H 2425 4225 50  0000 L CNN
F 2 "Capacitor_THT:C_Radial_D6.3mm_H11.0mm_P2.50mm" H 2348 4120 50  0001 C CNN
F 3 "~" H 2310 4270 50  0001 C CNN
	1    2310 4270
	1    0    0    -1  
$EndComp
$Comp
L Switch:SW_SPDT SW1
U 1 1 5EA05E8C
P 1360 4220
F 0 "SW1" H 1360 4505 50  0000 C CNN
F 1 "SW_SPDT" H 1360 4414 50  0000 C CNN
F 2 "Button_Switch_THT:SW_Slide_1P2T_CK_OS102011MS2Q" H 1360 4220 50  0001 C CNN
F 3 "~" H 1360 4220 50  0001 C CNN
	1    1360 4220
	1    0    0    -1  
$EndComp
NoConn ~ 1560 4320
$Comp
L Device:R R7
U 1 1 5EA0AAD6
P 1880 4570
F 0 "R7" H 1950 4616 50  0000 L CNN
F 1 "470r" H 1950 4525 50  0000 L CNN
F 2 "Resistor_THT:R_Axial_DIN0207_L6.3mm_D2.5mm_P2.54mm_Vertical" V 1810 4570 50  0001 C CNN
F 3 "~" H 1880 4570 50  0001 C CNN
	1    1880 4570
	1    0    0    -1  
$EndComp
$Comp
L Device:C C2
U 1 1 5EA0DD4F
P 2640 4270
F 0 "C2" H 2755 4316 50  0000 L CNN
F 1 "470u" H 2755 4225 50  0000 L CNN
F 2 "Capacitor_THT:C_Radial_D12.5mm_H20.0mm_P5.00mm" H 2678 4120 50  0001 C CNN
F 3 "~" H 2640 4270 50  0001 C CNN
	1    2640 4270
	1    0    0    -1  
$EndComp
Wire Wire Line
	1560 4120 1880 4120
Connection ~ 2640 4120
Wire Wire Line
	2640 4120 2970 4120
Connection ~ 2310 4120
Wire Wire Line
	2310 4120 2440 4120
Connection ~ 1880 4120
$Comp
L power:GND #PWR0106
U 1 1 5EA14220
P 1880 4720
F 0 "#PWR0106" H 1880 4470 50  0001 C CNN
F 1 "GND" H 1885 4547 50  0000 C CNN
F 2 "" H 1880 4720 50  0001 C CNN
F 3 "" H 1880 4720 50  0001 C CNN
	1    1880 4720
	1    0    0    -1  
$EndComp
$Comp
L power:GND #PWR0107
U 1 1 5EA14729
P 2640 4420
F 0 "#PWR0107" H 2640 4170 50  0001 C CNN
F 1 "GND" H 2645 4247 50  0000 C CNN
F 2 "" H 2640 4420 50  0001 C CNN
F 3 "" H 2640 4420 50  0001 C CNN
	1    2640 4420
	1    0    0    -1  
$EndComp
Wire Wire Line
	2970 4420 2640 4420
Connection ~ 2640 4420
Wire Wire Line
	2640 4420 2310 4420
Text GLabel 1160 4220 0    50   Input ~ 0
bat_in
Wire Notes Line
	780  3770 3460 3770
Wire Notes Line
	3460 4960 780  4960
Wire Notes Line
	780  4960 780  3770
Text Notes 800  3870 0    50   ~ 0
Power management
$Comp
L Device:R_POT_US RV5
U 1 1 5EA20032
P 9220 1970
F 0 "RV5" H 9152 1924 50  0000 R CNN
F 1 "0-10k" H 9152 2015 50  0000 R CNN
F 2 "Potentiometer_THT:Potentiometer_Bourns_3006P_Horizontal" H 9220 1970 50  0001 C CNN
F 3 "~" H 9220 1970 50  0001 C CNN
	1    9220 1970
	0    -1   -1   0   
$EndComp
Wire Wire Line
	9750 1420 9750 1630
Text GLabel 9150 1320 0    50   Input ~ 0
common_filtered
Text GLabel 9790 1630 2    50   Output ~ 0
out
Wire Wire Line
	9750 1630 9790 1630
Text GLabel 8770 2090 0    50   Input ~ 0
ouput_feedback
Wire Notes Line
	8020 740  10310 740 
Text Notes 8100 880  0    50   ~ 0
Mains gain control
$Comp
L Connector:Conn_01x02_Male J1
U 1 1 5EA7570F
P 1220 5810
F 0 "J1" V 1374 5622 50  0000 R CNN
F 1 "Piezzo_Hi_in" H 1283 5622 50  0000 R CNN
F 2 "Connector_PinHeader_2.54mm:PinHeader_1x02_P2.54mm_Vertical" H 1220 5810 50  0001 C CNN
F 3 "~" H 1220 5810 50  0001 C CNN
	1    1220 5810
	1    0    0    -1  
$EndComp
$Comp
L Connector:Conn_01x02_Male J2
U 1 1 5EA76CC1
P 1220 6920
F 0 "J2" V 1374 6732 50  0000 R CNN
F 1 "Piezzo_Lo_in" H 1283 6732 50  0000 R CNN
F 2 "Connector_PinHeader_2.54mm:PinHeader_1x02_P2.54mm_Vertical" H 1220 6920 50  0001 C CNN
F 3 "~" H 1220 6920 50  0001 C CNN
	1    1220 6920
	1    0    0    -1  
$EndComp
$Comp
L Connector:Conn_01x02_Male J3
U 1 1 5EA77C4E
P 2680 5280
F 0 "J3" V 2834 5092 50  0000 R CNN
F 1 "Bat_in" H 2743 5092 50  0000 R CNN
F 2 "Connector_PinHeader_2.54mm:PinHeader_1x02_P2.54mm_Vertical" H 2680 5280 50  0001 C CNN
F 3 "~" H 2680 5280 50  0001 C CNN
	1    2680 5280
	1    0    0    -1  
$EndComp
$Comp
L power:GND #PWR0109
U 1 1 5EA823F9
P 2880 5380
F 0 "#PWR0109" H 2880 5130 50  0001 C CNN
F 1 "GND" H 2885 5207 50  0000 C CNN
F 2 "" H 2880 5380 50  0001 C CNN
F 3 "" H 2880 5380 50  0001 C CNN
	1    2880 5380
	1    0    0    -1  
$EndComp
$Comp
L power:GND #PWR0110
U 1 1 5EA82995
P 1560 6110
F 0 "#PWR0110" H 1560 5860 50  0001 C CNN
F 1 "GND" H 1565 5937 50  0000 C CNN
F 2 "" H 1560 6110 50  0001 C CNN
F 3 "" H 1560 6110 50  0001 C CNN
	1    1560 6110
	1    0    0    -1  
$EndComp
$Comp
L power:GND #PWR0111
U 1 1 5EA83169
P 2730 6360
F 0 "#PWR0111" H 2730 6110 50  0001 C CNN
F 1 "GND" H 2735 6187 50  0000 C CNN
F 2 "" H 2730 6360 50  0001 C CNN
F 3 "" H 2730 6360 50  0001 C CNN
	1    2730 6360
	1    0    0    -1  
$EndComp
Text GLabel 2880 5280 2    50   Output ~ 0
bat_in
Text GLabel 1710 5810 2    50   Output ~ 0
piezo_hi_in
Text GLabel 1710 6920 2    50   Output ~ 0
piezo_lo_in
$Comp
L Connector:AudioJack2 J4
U 1 1 5EA86B9C
P 2930 6260
F 0 "J4" H 2750 6243 50  0000 R CNN
F 1 "AudioJack2" H 3210 6110 50  0000 R CNN
F 2 "Connector_PinHeader_2.54mm:PinHeader_1x02_P2.54mm_Vertical" H 2930 6260 50  0001 C CNN
F 3 "~" H 2930 6260 50  0001 C CNN
	1    2930 6260
	-1   0    0    1   
$EndComp
Text GLabel 2730 6260 0    50   Input ~ 0
out
Wire Notes Line
	3240 5140 750  5140
Text Notes 800  5250 0    50   ~ 0
Connectors
Text GLabel 3690 2520 0    50   Input ~ 0
common_filtered
Text GLabel 9040 3470 2    50   Output ~ 0
ouput_feedback
$Comp
L Amplifier_Operational:AD8001AN U2
U 1 1 5EAABDE5
P 3990 2620
F 0 "U2" H 4334 2666 50  0000 L CNN
F 1 "AD8001AN" H 4334 2575 50  0000 L CNN
F 2 "Package_DIP:DIP-8_W7.62mm" H 3890 2420 50  0001 L CNN
F 3 "https://www.analog.com/media/en/technical-documentation/data-sheets/ad8001.pdf" H 4140 2770 50  0001 C CNN
	1    3990 2620
	1    0    0    -1  
$EndComp
$Comp
L power:GND #PWR0112
U 1 1 5EAAD9C7
P 3890 2920
F 0 "#PWR0112" H 3890 2670 50  0001 C CNN
F 1 "GND" H 3895 2747 50  0000 C CNN
F 2 "" H 3890 2920 50  0001 C CNN
F 3 "" H 3890 2920 50  0001 C CNN
	1    3890 2920
	1    0    0    -1  
$EndComp
Wire Wire Line
	4290 3200 3690 3200
Wire Wire Line
	4290 2620 4290 2840
Wire Wire Line
	3690 2720 3690 3200
Wire Notes Line
	2980 3230 2980 1930
Text GLabel 4320 2840 2    50   Output ~ 0
common_filtered_copy
Wire Notes Line
	5230 3230 5230 1930
Wire Notes Line
	2980 3230 5230 3230
Wire Notes Line
	2980 1930 5230 1930
Wire Wire Line
	4320 2840 4290 2840
Connection ~ 4290 2840
Wire Wire Line
	4290 2840 4290 3200
Text Notes 3030 2050 0    50   ~ 0
Clean signal duplicator
Wire Notes Line
	6040 2910 6040 6280
Wire Notes Line
	6040 6280 9980 6280
Wire Notes Line
	9980 6280 9980 2900
Wire Notes Line
	9980 2900 6040 2900
Text GLabel 7060 3500 0    50   Input ~ 0
common_filtered_copy
Text Notes 6060 3010 0    50   ~ 0
Effect generator
NoConn ~ 9040 3470
NoConn ~ 7060 3500
Wire Wire Line
	4520 1250 5210 1250
Wire Wire Line
	5210 1240 5210 1250
Connection ~ 5210 1250
Wire Wire Line
	5210 1250 5210 1500
$Comp
L Device:C C8
U 1 1 5E9DE4C9
P 5360 1500
F 0 "C8" V 5108 1500 50  0000 C CNN
F 1 "22nF" V 5199 1500 50  0000 C CNN
F 2 "Capacitor_THT:C_Disc_D3.0mm_W2.0mm_P2.50mm" H 5398 1350 50  0001 C CNN
F 3 "~" H 5360 1500 50  0001 C CNN
	1    5360 1500
	0    1    1    0   
$EndComp
Wire Wire Line
	5510 1500 5510 1240
Connection ~ 5510 1240
NoConn ~ 5660 1390
$Comp
L Device:R R3
U 1 1 5E9D10CF
P 1560 5660
F 0 "R3" H 1630 5706 50  0000 L CNN
F 1 "220k" H 1630 5615 50  0000 L CNN
F 2 "Resistor_THT:R_Axial_DIN0207_L6.3mm_D2.5mm_P10.16mm_Horizontal" V 1490 5660 50  0001 C CNN
F 3 "~" H 1560 5660 50  0001 C CNN
	1    1560 5660
	1    0    0    -1  
$EndComp
$Comp
L power:GND #PWR0113
U 1 1 5E9F875E
P 1560 7220
F 0 "#PWR0113" H 1560 6970 50  0001 C CNN
F 1 "GND" H 1565 7047 50  0000 C CNN
F 2 "" H 1560 7220 50  0001 C CNN
F 3 "" H 1560 7220 50  0001 C CNN
	1    1560 7220
	1    0    0    -1  
$EndComp
$Comp
L Device:R R5
U 1 1 5E9F8769
P 1560 6770
F 0 "R5" H 1630 6816 50  0000 L CNN
F 1 "220k" H 1630 6725 50  0000 L CNN
F 2 "Resistor_THT:R_Axial_DIN0207_L6.3mm_D2.5mm_P2.54mm_Vertical" V 1490 6770 50  0001 C CNN
F 3 "~" H 1560 6770 50  0001 C CNN
	1    1560 6770
	1    0    0    -1  
$EndComp
$Comp
L Device:R R6
U 1 1 5E9F8773
P 1560 7070
F 0 "R6" H 1630 7116 50  0000 L CNN
F 1 "220k" H 1630 7025 50  0000 L CNN
F 2 "Resistor_THT:R_Axial_DIN0207_L6.3mm_D2.5mm_P2.54mm_Vertical" V 1490 7070 50  0001 C CNN
F 3 "~" H 1560 7070 50  0001 C CNN
	1    1560 7070
	1    0    0    -1  
$EndComp
Wire Notes Line
	750  7450 3240 7450
Wire Notes Line
	750  5140 750  7450
Wire Notes Line
	3240 5140 3240 7450
$Comp
L Device:R R1
U 1 1 5EA11B86
P 1140 2780
F 0 "R1" H 1210 2826 50  0000 L CNN
F 1 "1k" H 1210 2735 50  0000 L CNN
F 2 "Resistor_THT:R_Axial_DIN0207_L6.3mm_D2.5mm_P15.24mm_Horizontal" V 1070 2780 50  0001 C CNN
F 3 "~" H 1140 2780 50  0001 C CNN
	1    1140 2780
	0    -1   -1   0   
$EndComp
$Comp
L Device:R R2
U 1 1 5EA11B90
P 1140 2880
F 0 "R2" H 1210 2926 50  0000 L CNN
F 1 "1k" H 1210 2835 50  0000 L CNN
F 2 "Resistor_THT:R_Axial_DIN0207_L6.3mm_D2.5mm_P15.24mm_Horizontal" V 1070 2880 50  0001 C CNN
F 3 "~" H 1140 2880 50  0001 C CNN
	1    1140 2880
	0    -1   -1   0   
$EndComp
$Comp
L power:GND #PWR0114
U 1 1 5EA11B9A
P 990 2880
F 0 "#PWR0114" H 990 2630 50  0001 C CNN
F 1 "GND" H 995 2707 50  0000 C CNN
F 2 "" H 990 2880 50  0001 C CNN
F 3 "" H 990 2880 50  0001 C CNN
	1    990  2880
	1    0    0    -1  
$EndComp
Wire Wire Line
	1290 2780 1290 2830
Wire Wire Line
	1290 2830 1290 2880
Connection ~ 1290 2830
$Comp
L Device:R R12
U 1 1 5EA25CF1
P 8920 1970
F 0 "R12" H 8990 2016 50  0000 L CNN
F 1 "1k" H 8990 1925 50  0000 L CNN
F 2 "Resistor_THT:R_Axial_DIN0207_L6.3mm_D2.5mm_P2.54mm_Vertical" V 8850 1970 50  0001 C CNN
F 3 "~" H 8920 1970 50  0001 C CNN
	1    8920 1970
	0    -1   -1   0   
$EndComp
$Comp
L Device:R R14
U 1 1 5EA25CFB
P 8920 2220
F 0 "R14" H 8990 2266 50  0000 L CNN
F 1 "1k" H 8990 2175 50  0000 L CNN
F 2 "Resistor_THT:R_Axial_DIN0207_L6.3mm_D2.5mm_P2.54mm_Vertical" V 8850 2220 50  0001 C CNN
F 3 "~" H 8920 2220 50  0001 C CNN
	1    8920 2220
	0    -1   -1   0   
$EndComp
$Comp
L power:GND #PWR0115
U 1 1 5EA25D05
P 8770 2220
F 0 "#PWR0115" H 8770 1970 50  0001 C CNN
F 1 "GND" H 8775 2047 50  0000 C CNN
F 2 "" H 8770 2220 50  0001 C CNN
F 3 "" H 8770 2220 50  0001 C CNN
	1    8770 2220
	1    0    0    -1  
$EndComp
Wire Notes Line
	750  3570 2670 3570
Wire Notes Line
	2670 710  2670 3570
Wire Notes Line
	750  710  750  3570
Wire Wire Line
	9750 1980 9370 1980
Wire Wire Line
	9370 1980 9370 1970
Wire Wire Line
	9750 1630 9750 1980
Connection ~ 9750 1630
Wire Wire Line
	9070 1970 9070 2090
Wire Wire Line
	9070 2090 9070 2220
Connection ~ 9070 2090
Wire Wire Line
	9150 1520 9150 1820
Wire Wire Line
	9150 1820 9220 1820
Wire Notes Line
	8020 2430 10310 2430
Wire Notes Line
	8020 740  8020 2430
Wire Notes Line
	10310 740  10310 2430
Connection ~ 9070 1970
Wire Wire Line
	2040 2440 2110 2440
Wire Wire Line
	1250 1140 1490 1140
Wire Wire Line
	1490 1140 1490 1150
Wire Wire Line
	1250 1460 1490 1460
Wire Wire Line
	1640 1300 1640 1620
Wire Wire Line
	1640 1620 1260 1620
Wire Wire Line
	1260 1620 1260 2130
Wire Wire Line
	1260 2130 1440 2130
$Comp
L Device:R_POT_US RV2
U 1 1 5EAAFEBE
P 1490 1300
F 0 "RV2" H 1423 1346 50  0000 R CNN
F 1 "R_POT_US" H 1423 1255 50  0000 R CNN
F 2 "Potentiometer_THT:Potentiometer_Bourns_3006P_Horizontal" H 1490 1300 50  0001 C CNN
F 3 "~" H 1490 1300 50  0001 C CNN
	1    1490 1300
	1    0    0    -1  
$EndComp
Wire Wire Line
	1490 1460 1490 1450
$Comp
L Device:Q_NPN_BCE Q1
U 1 1 5EABF523
P 4760 6720
F 0 "Q1" H 4950 6766 50  0000 L CNN
F 1 "C2328" H 4950 6675 50  0000 L CNN
F 2 "Package_TO_SOT_THT:TO-92L" H 4960 6820 50  0001 C CNN
F 3 "~" H 4760 6720 50  0001 C CNN
	1    4760 6720
	1    0    0    -1  
$EndComp
$Comp
L power:GND #PWR0116
U 1 1 5EAC030B
P 4560 7020
F 0 "#PWR0116" H 4560 6770 50  0001 C CNN
F 1 "GND" H 4565 6847 50  0000 C CNN
F 2 "" H 4560 7020 50  0001 C CNN
F 3 "" H 4560 7020 50  0001 C CNN
	1    4560 7020
	1    0    0    -1  
$EndComp
$Comp
L Device:R R9
U 1 1 5EAC0FF5
P 4560 6570
F 0 "R9" H 4630 6616 50  0000 L CNN
F 1 "R" H 4630 6525 50  0000 L CNN
F 2 "Resistor_THT:R_Axial_DIN0207_L6.3mm_D2.5mm_P2.54mm_Vertical" V 4490 6570 50  0001 C CNN
F 3 "~" H 4560 6570 50  0001 C CNN
	1    4560 6570
	1    0    0    -1  
$EndComp
$Comp
L Device:R R10
U 1 1 5EAC17A4
P 4560 6870
F 0 "R10" H 4630 6916 50  0000 L CNN
F 1 "R" H 4630 6825 50  0000 L CNN
F 2 "Resistor_THT:R_Axial_DIN0207_L6.3mm_D2.5mm_P2.54mm_Vertical" V 4490 6870 50  0001 C CNN
F 3 "~" H 4560 6870 50  0001 C CNN
	1    4560 6870
	1    0    0    -1  
$EndComp
Connection ~ 4560 6720
Wire Wire Line
	4860 7010 4560 7010
Wire Wire Line
	4860 6920 4860 7010
Wire Wire Line
	4560 7010 4560 7020
Connection ~ 4560 7020
Text GLabel 3860 6820 0    50   Input ~ 0
out
$Comp
L Device:C C5
U 1 1 5EAD0E0C
P 4410 6720
F 0 "C5" V 4158 6720 50  0000 C CNN
F 1 "C" V 4249 6720 50  0000 C CNN
F 2 "Capacitor_THT:C_Disc_D3.0mm_W2.0mm_P2.50mm" H 4448 6570 50  0001 C CNN
F 3 "~" H 4410 6720 50  0001 C CNN
	1    4410 6720
	0    1    1    0   
$EndComp
$Comp
L Switch:SW_SPDT SW2
U 1 1 5EAD4881
P 4060 6820
F 0 "SW2" H 4060 7105 50  0000 C CNN
F 1 "SW_SPDT" H 4060 7014 50  0000 C CNN
F 2 "Button_Switch_THT:SW_Slide_1P2T_CK_OS102011MS2Q" H 4060 6820 50  0001 C CNN
F 3 "~" H 4060 6820 50  0001 C CNN
	1    4060 6820
	1    0    0    -1  
$EndComp
$Comp
L Connector:AudioJack2 J5
U 1 1 5EAE268B
P 5060 6420
F 0 "J5" H 4880 6403 50  0000 R CNN
F 1 "AudioJack2" H 5340 6270 50  0000 R CNN
F 2 "Connector_PinHeader_2.54mm:PinHeader_1x02_P2.54mm_Vertical" H 5060 6420 50  0001 C CNN
F 3 "~" H 5060 6420 50  0001 C CNN
	1    5060 6420
	-1   0    0    1   
$EndComp
Wire Notes Line
	3650 7250 5340 7250
Wire Notes Line
	5340 7250 5340 6070
Wire Notes Line
	5340 6070 3650 6070
Wire Notes Line
	3650 6070 3650 7250
Text Notes 3670 6170 0    50   ~ 0
Headphone output
$Comp
L Amplifier_Operational:TL082 U1
U 1 1 5EAF02FE
P 9450 1420
F 0 "U1" H 9450 1787 50  0000 C CNN
F 1 "TL082" H 9450 1696 50  0000 C CNN
F 2 "Package_DIP:DIP-8_W7.62mm" H 9450 1420 50  0001 C CNN
F 3 "http://www.ti.com/lit/ds/symlink/tl081.pdf" H 9450 1420 50  0001 C CNN
	1    9450 1420
	1    0    0    -1  
$EndComp
$Comp
L Amplifier_Operational:TL082 U1
U 3 1 5EAFA643
P 3590 4340
F 0 "U1" H 3548 4386 50  0000 L CNN
F 1 "TL082" H 3548 4295 50  0000 L CNN
F 2 "Package_DIP:DIP-8_W7.62mm" H 3590 4340 50  0001 C CNN
F 3 "http://www.ti.com/lit/ds/symlink/tl081.pdf" H 3590 4340 50  0001 C CNN
	3    3590 4340
	1    0    0    -1  
$EndComp
$Comp
L Amplifier_Operational:TL082 U1
U 2 1 5EB321FE
P 1740 2230
F 0 "U1" H 1740 2597 50  0000 C CNN
F 1 "TL082" H 1740 2506 50  0000 C CNN
F 2 "Package_DIP:DIP-8_W7.62mm" H 1740 2230 50  0001 C CNN
F 3 "http://www.ti.com/lit/ds/symlink/tl081.pdf" H 1740 2230 50  0001 C CNN
	2    1740 2230
	1    0    0    -1  
$EndComp
$Comp
L Device:R R4
U 1 1 5E9DA797
P 1560 5960
F 0 "R4" H 1630 6006 50  0000 L CNN
F 1 "220k" H 1630 5915 50  0000 L CNN
F 2 "Resistor_THT:R_Axial_DIN0207_L6.3mm_D2.5mm_P2.54mm_Vertical" V 1490 5960 50  0001 C CNN
F 3 "~" H 1560 5960 50  0001 C CNN
	1    1560 5960
	1    0    0    -1  
$EndComp
Wire Wire Line
	1420 6920 1560 6920
Connection ~ 1560 6920
Wire Wire Line
	1560 6920 1710 6920
Wire Wire Line
	1560 7220 1420 7220
Wire Wire Line
	1420 5810 1560 5810
Wire Wire Line
	1420 7020 1420 7220
Connection ~ 1560 7220
Connection ~ 1560 5810
Wire Wire Line
	1560 5810 1710 5810
Wire Wire Line
	1420 6110 1560 6110
Wire Wire Line
	1420 5910 1420 6110
Connection ~ 1560 6110
$Comp
L power:VCC #PWR0108
U 1 1 5EA26079
P 2440 4120
F 0 "#PWR0108" H 2440 3970 50  0001 C CNN
F 1 "VCC" H 2457 4293 50  0000 C CNN
F 2 "" H 2440 4120 50  0001 C CNN
F 3 "" H 2440 4120 50  0001 C CNN
	1    2440 4120
	1    0    0    -1  
$EndComp
Connection ~ 2440 4120
Wire Wire Line
	2440 4120 2640 4120
Wire Wire Line
	1880 4120 2310 4120
$Comp
L power:VCC #PWR0117
U 1 1 5EA2746A
P 3490 4040
F 0 "#PWR0117" H 3490 3890 50  0001 C CNN
F 1 "VCC" H 3507 4213 50  0000 C CNN
F 2 "" H 3490 4040 50  0001 C CNN
F 3 "" H 3490 4040 50  0001 C CNN
	1    3490 4040
	1    0    0    -1  
$EndComp
$Comp
L power:VCC #PWR0118
U 1 1 5EA27C20
P 1560 6620
F 0 "#PWR0118" H 1560 6470 50  0001 C CNN
F 1 "VCC" H 1577 6793 50  0000 C CNN
F 2 "" H 1560 6620 50  0001 C CNN
F 3 "" H 1560 6620 50  0001 C CNN
	1    1560 6620
	1    0    0    -1  
$EndComp
$Comp
L power:VCC #PWR0119
U 1 1 5EA29FF7
P 1560 5510
F 0 "#PWR0119" H 1560 5360 50  0001 C CNN
F 1 "VCC" H 1577 5683 50  0000 C CNN
F 2 "" H 1560 5510 50  0001 C CNN
F 3 "" H 1560 5510 50  0001 C CNN
	1    1560 5510
	1    0    0    -1  
$EndComp
$Comp
L power:VCC #PWR0120
U 1 1 5EA2E86B
P 4560 6420
F 0 "#PWR0120" H 4560 6270 50  0001 C CNN
F 1 "VCC" H 4577 6593 50  0000 C CNN
F 2 "" H 4560 6420 50  0001 C CNN
F 3 "" H 4560 6420 50  0001 C CNN
	1    4560 6420
	1    0    0    -1  
$EndComp
Connection ~ 4560 6420
Wire Wire Line
	4560 6420 4860 6420
$Comp
L power:VCC #PWR0121
U 1 1 5EA3401A
P 3890 2320
F 0 "#PWR0121" H 3890 2170 50  0001 C CNN
F 1 "VCC" H 3907 2493 50  0000 C CNN
F 2 "" H 3890 2320 50  0001 C CNN
F 3 "" H 3890 2320 50  0001 C CNN
	1    3890 2320
	1    0    0    -1  
$EndComp
$Comp
L power:VCC #PWR0122
U 1 1 5EA3C5CA
P 8770 1970
F 0 "#PWR0122" H 8770 1820 50  0001 C CNN
F 1 "VCC" H 8787 2143 50  0000 C CNN
F 2 "" H 8770 1970 50  0001 C CNN
F 3 "" H 8770 1970 50  0001 C CNN
	1    8770 1970
	1    0    0    -1  
$EndComp
$Comp
L power:VCC #PWR0123
U 1 1 5EA47B3D
P 990 2780
F 0 "#PWR0123" H 990 2630 50  0001 C CNN
F 1 "VCC" H 1007 2953 50  0000 C CNN
F 2 "" H 990 2780 50  0001 C CNN
F 3 "" H 990 2780 50  0001 C CNN
	1    990  2780
	1    0    0    -1  
$EndComp
Wire Wire Line
	5960 1390 5960 1650
Wire Wire Line
	5960 1650 6310 1650
Wire Wire Line
	6310 1650 6310 1540
Wire Wire Line
	4520 1550 4520 1650
Wire Wire Line
	4520 1650 5960 1650
Connection ~ 5960 1650
$Comp
L Device:R R16
U 1 1 5EA8978D
P 6950 1580
F 0 "R16" V 6743 1580 50  0000 C CNN
F 1 "R" V 6834 1580 50  0000 C CNN
F 2 "Resistor_THT:R_Axial_DIN0207_L6.3mm_D2.5mm_P7.62mm_Horizontal" V 6880 1580 50  0001 C CNN
F 3 "~" H 6950 1580 50  0001 C CNN
	1    6950 1580
	0    1    1    0   
$EndComp
$Comp
L Device:R R15
U 1 1 5EA8AC56
P 6950 1490
F 0 "R15" V 6743 1490 50  0000 C CNN
F 1 "R" V 6834 1490 50  0000 C CNN
F 2 "Resistor_THT:R_Axial_DIN0207_L6.3mm_D2.5mm_P7.62mm_Horizontal" V 6880 1490 50  0001 C CNN
F 3 "~" H 6950 1490 50  0001 C CNN
	1    6950 1490
	0    1    1    0   
$EndComp
Wire Wire Line
	6800 1490 6800 1580
Wire Wire Line
	6800 1580 6800 1650
Wire Wire Line
	6800 1650 6310 1650
Connection ~ 6800 1580
Connection ~ 6310 1650
$Comp
L power:VCC #PWR01
U 1 1 5EA8E5D2
P 7100 1490
F 0 "#PWR01" H 7100 1340 50  0001 C CNN
F 1 "VCC" H 7117 1663 50  0000 C CNN
F 2 "" H 7100 1490 50  0001 C CNN
F 3 "" H 7100 1490 50  0001 C CNN
	1    7100 1490
	1    0    0    -1  
$EndComp
Wire Wire Line
	5510 1240 5810 1240
Connection ~ 5810 1240
Wire Wire Line
	5810 1240 6010 1240
$EndSCHEMATC
